MPM 200 R Exercise
…
###The mortality rates are similar across Selaphorus and non-Selaphorus species of hummingbirds.

## Q12. Analyze the Trend of Hummingbird Admissions Over Time.
model_data$Admitted_date = as.Date(model_data$Admitted, format = "%m/%d/%Y")

### The argument "format" referes to the character string format to be converted. The %m refers to the characters as decimal number to be converted to month; %d refers to the characters as decimal number to be converted to the day of the month; %y refers to the characters in decimal format without century to be converted to the year.

admissions_by_month = model_data %>%
  mutate(Admitted_month = format(Admitted_date, "%Y-%m")) %>%
  group_by(Admitted_month) %>%
  summarise(count = n_distinct(ID))

admissions_by_month

## # A tibble: 307 x 2
##    Admitted_month count
##    <chr>          <int>
##  1 1991-01           14
##  2 1991-02            4
##  3 1991-03           25
##  4 1991-04           26
##  5 1991-05           18
##  6 1991-06           19
##  7 1991-07           11
##  8 1991-08           10
##  9 1991-09            3
## 10 1991-10            2
## # i 297 more rows
…
admissions_by_year = model_data %>%
  mutate(Admitted_year = format(Admitted_date, "%Y")) %>%
  group_by(Admitted_year) %>%
  summarise(count = n_distinct(ID))

admissions_by_year

## # A tibble: 26 x 2
##    Admitted_year count
##    <chr>         <int>
##  1 1991            137
##  2 1992            120
##  3 1993            131
##  4 1994            131
##  5 1995            161
##  6 1996            146
##  7 1997            125
##  8 1998            149
##  9 1999            144
## 10 2000            148
## # i 16 more rows
…
